{
  "Name": "CapacitySignKit",
  "Rules": [
    {
      "Name": "DatabasePartNumber",
      "LiteralValue": "HDW.HW.STK.CAPCONF"
    },
    {
      "Name": "Description",
      "LiteralValue": "Capacity & Configuration Sign"
    }
  ]
}