{
  "Name": "RSFrameTie",
  "Rules": [
    {
      "Name": "RSFRAMETIEPAINT.Rate",
      "Code": "return (1.0 / PaintCarriersPerHour.Value) / PartsPerCarrier.Value;"
    },
    {
      "Name": "RSFRAMETIEUNLOAD.Rate",
      "Code": "return (1.0 / UnloadCarriersPerHour.Value) / PartsPerCarrier.Value;"
    },
    {
      "Name": "PaintCarriersPerHour",
      "LiteralValue": 12
    },
    {
      "Name": "UnloadCarriersPerHour",
      "LiteralValue": 4
    },
    {
      "Name": "PartsPerCarrier",
      "LiteralValue": 50
    }
  ]
}
