{
  "Name": "XBCrossbarAngle",
  "Rules": [
    {
      "Name": "FicepPiecesPerHr",
      "LiteralValue": 300
    },
    {
      "Name": "XBCROSSBARFICEP.Rate",
      "Code": "return (1.0/FicepPiecesPerHr.Value);"
    },
    {
      "Name": "XBCROSSBARFICEP.Setup",
      "LiteralValue": 0.25
    },
    {
      "Name": "AccupressPiecesPerHr",
      "LiteralValue": 90
    },
    {
      "Name": "XBCROSSBARACCUPRESS.Rate",
      "Code": "return (1.0/AccupressPiecesPerHr.Value);"
    },
    {
      "Name": "XBCROSSBARACCUPRESS.Setup",
      "LiteralValue": 1
    }

  ]
}